…
    # Count unique hosts per category & group
    hmm_unique_hosts_by_category <- hmm_selected_clean %>%
      group_by(Category, `Host Trend Group`) %>%
      summarize(unique_hosts = n_distinct(variable), .groups = "drop")

    # Count unique hosts per function & group
    hmm_unique_hosts <- hmm_selected_clean %>%
      group_by(Function, `Host Trend Group`, Category) %>%
      summarize(unique_hosts = n_distinct(variable), .groups = "drop")

    hmm_unique_hosts

    ## # A tibble: 128 × 4
    ##    Function                `Host Trend Group` Category             unique_hosts
    ##    <chr>                   <fct>              <chr>                       <int>
    ##  1 Acetaldehyde => Ethanol NAT                Ethanol fermentation           38
    ##  2 Acetaldehyde => Ethanol REST               Ethanol fermentation           38
    ##  3 Acetaldehyde => Ethanol DAM                Ethanol fermentation           48
    ##  4 Acetate => Acetaldehyde NAT                Ethanol fermentation           47
    ##  5 Acetate => Acetaldehyde REST               Ethanol fermentation           47
    ##  6 Acetate => Acetaldehyde DAM                Ethanol fermentation           47
    ##  7 Acetate to acetyl-CoA   NAT                Fermentation                  173
    ##  8 Acetate to acetyl-CoA   REST               Fermentation                  174
    ##  9 Acetate to acetyl-CoA   DAM                Fermentation                  172
    ## 10 Acetogenesis            NAT                Fermentation                   34
    ## # ℹ 118 more rows
…
    # Count unique hosts per category & group
    keggresult_by_category <- kegg_summary %>%
      group_by(`Host Trend Group`, `Module.Category`) %>%
      summarise(unique_hosts = n_distinct(variable), .groups = "drop")

    keggresult_by_category

    ## # A tibble: 88 × 3
    ##    `Host Trend Group` Module.Category                      unique_hosts
    ##    <fct>              <chr>                                       <int>
    ##  1 NAT                ATP synthesis                                 161
    ##  2 NAT                Arginine and proline metabolism               216
    ##  3 NAT                Aromatic amino acid metabolism                183
    ##  4 NAT                Aromatics degradation                          32
    ##  5 NAT                Biosynthesis of other antibiotics               2
    ##  6 NAT                Branched-chain amino acid metabolism          185
    ##  7 NAT                Carbon fixation                               177
    ##  8 NAT                Central carbohydrate metabolism               224
    ##  9 NAT                Cofactor and vitamin metabolism               224
    ## 10 NAT                Cysteine and methionine metabolism            200
    ## # ℹ 78 more rows
…
    # Rename columns for consistency with downstream (if needed)
    colnames(keggresult) <- c( "Function", "Host Trend Group", "Category","unique_hosts")

    keggresult <- keggresult[keggresult$Category %in% categories_of_interest,]
    keggresult$Category <- factor(keggresult$Category,
                                  levels = c("Methane metabolism", "Nitrogen metabolism", 
                                             "Sulfur metabolism", "Carbon fixation", "Fermentation"),
                                  labels = c("Methane\nmetabolism", "Nitrogen\nmetabolism", 
                                             "Sulfur\nmetabolism", "Carbon\nfixation", "Fermentation"))

    keggresult

    ## # A tibble: 78 × 4
    ##    Function                                             `Host Trend Group` Category               unique_hosts
    ##    <chr>                                                <fct>              <fct>                         <dbl>
    ##  1 Acetyl-CoA pathway, CO2 => acetyl-CoA                NAT                "Methane\nmetabolism"             7
    ##  2 Acetyl-CoA pathway, CO2 => acetyl-CoA                REST               "Methane\nmetabolism"             8
    ##  3 Acetyl-CoA pathway, CO2 => acetyl-CoA                DAM                "Methane\nmetabolism"             6
    ##  4 Assimilatory nitrate reduction, nitrate => ammonia   NAT                "Nitrogen\nmetabolism"           20
    ##  5 Assimilatory nitrate reduction, nitrate => ammonia   REST               "Nitrogen\nmetabolism"           17
    ##  6 Assimilatory nitrate reduction, nitrate => ammonia   DAM                "Nitrogen\nmetabolism"            7
    ##  7 Assimilatory sulfate reduction, sulfate => H2S       NAT                "Sulfur\nmetabolism"              6
    ##  8 Assimilatory sulfate reduction, sulfate => H2S       REST               "Sulfur\nmetabolism"              3
    ##  9 Assimilatory sulfate reduction, sulfate => H2S       DAM                "Sulfur\nmetabolism"             10
    ## 10 C4-dicarboxylic acid cycle, NADP - malic enzyme type NAT                "Carbon\nfixation"               53
    ## # ℹ 68 more rows
…
